…
```r
data1_summary
```

```
## # A tibble: 61 x 4
##    date     `sum(steps, na.rm ~ `mean(steps, na.rm ~ `median(steps, na.rm~
##    <chr>                  <int>                <dbl>                 <dbl>
##  1 2012-10~                   0              NaN                        NA
##  2 2012-10~                 126                0.438                     0
##  3 2012-10~               11352               39.4                       0
##  4 2012-10~               12116               42.1                       0
##  5 2012-10~               13294               46.2                       0
##  6 2012-10~               15420               53.5                       0
##  7 2012-10~               11015               38.2                       0
##  8 2012-10~                   0              NaN                        NA
##  9 2012-10~               12811               44.5                       0
## 10 2012-10~                9900               34.4                       0
## # ... with 51 more rows
```
…
